{
    "file" : "fragments/pflow-base.json",
    "dl2_configs": [
        {
            "nn_file_path": "BTagging/20220509/gn1/antikt4empflow/network.onnx",
            "engine": "gnn"
        }
    ],
    "variables": {
        "jet" : {
            "ints" : ["n_tracks"],
            "uints": ["jetFoldHash", "jetFoldHash_noHits"]
        },
        "btagging": {
            "floats": [
                "GN120220509_pb",
                "GN120220509_pc",
                "GN120220509_pu",
                "GN2v00_pb",
                "GN2v00_pc",
                "GN2v00_pu",
                "GN2v01_pb",
                "GN2v01_pc",
                "GN2v01_pu",
                "GN2v01_ptau",
                "GN2v01NoAux_pb",
                "GN2v01NoAux_pc",
                "GN2v01NoAux_pu",
                "GN2v01NoAux_ptau"
            ]
        }
    },
    "tracks": [
        {
            "n_to_save": 40,
            "selection": {
                "file": "fragments/r22default-track-cuts.json"
            },
            "sort_order": "d0_significance",
            "btagging_link": "btaggingLink",
            "input_name": "BTagTrackToJetAssociator",
            "output_name": "tracks",
            "variables": {
                "file": "fragments/pflow-track-variables-all.json",
                "chars": [
                    "auxtask_GN2v01_TrackOrigin",
                    "auxtask_GN2v01_VertexIndex",
                    "auxtask_tmp_GN2v01_TrackOrigin",
                    "auxtask_tmp_GN2v01_VertexIndex"
                ]
            },
            "ip_prefix": "btagIp_"
        }
    ],
    "ca_blocks": [
        {
            "block": "MultifoldTagger",
            "nn_paths": [
                "BTagging/20231205/GN2v01/antikt4empflow/network_fold0.onnx",
                "BTagging/20231205/GN2v01/antikt4empflow/network_fold1.onnx",
                "BTagging/20231205/GN2v01/antikt4empflow/network_fold2.onnx",
                "BTagging/20231205/GN2v01/antikt4empflow/network_fold3.onnx"
            ],
            "remap": {
                "GN2v01_pb": "tmp_GN2v01_pb",
                "GN2v01_pc": "tmp_GN2v01_pc",
                "GN2v01_pu": "tmp_GN2v01_pu",
                "GN2v01_ptau": "tmp_GN2v01_ptau",
                "GN2v01_TrackOrigin": "tmp_GN2v01_TrackOrigin",
                "GN2v01_VertexIndex": "tmp_GN2v01_VertexIndex",
                "GN2v01_TrackLinks": "tmp_GN2v01_TrackLinks"
            }
        },
        {
            "block": "GNNAuxTaskMapper",
            "btagging_container": "BTagging_AntiKt4EMPFlow",
            "track_container": "InDetTrackParticles",
            "track_links": "GN2v01_TrackLinks",
            "track_aux_tasks": {
                "GN2v01_VertexIndex": "auxtask_GN2v01_VertexIndex",
                "GN2v01_TrackOrigin": "auxtask_GN2v01_TrackOrigin",
                "tmp_GN2v01_TrackOrigin": "auxtask_tmp_GN2v01_TrackOrigin",
                "tmp_GN2v01_VertexIndex": "auxtask_tmp_GN2v01_VertexIndex"
            }
        },
        {
            "block": "MultifoldTagger",
            "nn_paths": [
                "dev/BTagging/20240408/GN2v01NoAux/antikt4empflow/network_fold0.onnx",
                "dev/BTagging/20240408/GN2v01NoAux/antikt4empflow/network_fold1.onnx",
                "dev/BTagging/20240408/GN2v01NoAux/antikt4empflow/network_fold2.onnx",
                "dev/BTagging/20240408/GN2v01NoAux/antikt4empflow/network_fold3.onnx"
            ],
            "remap": {
                "GN2NoAux_pb": "GN2v01NoAux_pb",
                "GN2NoAux_pc": "GN2v01NoAux_pc",
                "GN2NoAux_pu": "GN2v01NoAux_pu",
                "GN2NoAux_ptau": "GN2v01NoAux_ptau"
            }
        }
    ]
}
