{
    "jet_collection": "AntiKt10UFOCSSKSoftDropBeta100Zcut10Jets",
    "calibration": {},
    "selection": {
        "minimum_jet_pt": 200000,
        "maximum_jet_pt": 1500000,
        "maximum_jet_absolute_eta": 2.0,
        "minimum_jet_mass": 50000,
        "maximum_jet_mass": 300000
    },
    "vertex_collection": "PrimaryVertices",
    "dl2_configs": [
        {
            "nn_file_path": "BTagging/2020v3/Xbb/GhostVR30Rmax4Rmin02TrackJet_BTagging201903/network.json",
            "remapping": {
                "GhostVR30Rmax4Rmin02TrackJet_BTagging201903": "GhostAntiKtVR30Rmax4Rmin02PV0TrackJets"
            },
            "engine": "xbb",
            "where": "jet"
        },
        {
            "nn_file_path": "BTagging/20230413/gn2xv00/antikt10ufo/network.onnx",
            "remapping": {
                "BTagTrackToJetAssociator": "GhostTrack"
            },
            "engine": "gnn",
            "where": "jet"

        },
        {
            "nn_file_path": "BTagging/20230413/gn2xwithmassv00/antikt10ufo/network.onnx",
            "remapping": {
                "BTagTrackToJetAssociator": "GhostTrack"
            },
            "engine": "gnn",
            "where": "jet"

        }
    ],
    "variables": {
        "file": "fragments/jet-substructure-variables.json",
        "jet" : {
            "ints": [
                "jetPtRank",
                "R10TruthLabel_R22v1",
                "GhostBHadronsFinalCount",
                "GhostHBosonsCount",
                "GhostWBosonsCount",
                "GhostZBosonsCount",
                "GhostTQuarksFinalCount",
                "GhostTrackCount",
                "n_subjets",
                "n_tracks"
            ],
            "floats": [
                "pt",
                "eta",
                "abs_eta",
                "mass",
                "energy",
                "GhostBHadronsFinalPt",
                "GhostHBosonsPt",
                "GhostWBosonsPt",
                "GhostZBosonsPt",
                "GhostTQuarksFinalPt",
                "Xbb2020v3_Higgs",
                "Xbb2020v3_QCD",
                "Xbb2020v3_Top",
                "GN2Xv00_phbb",
                "GN2Xv00_phcc",
                "GN2Xv00_ptop",
                "GN2Xv00_pqcd",
                "GN2XWithMassv00_phbb",
                "GN2XWithMassv00_phcc",
                "GN2XWithMassv00_ptop",
                "GN2XWithMassv00_pqcd",
                "R10TruthLabel_R22v1_TruthJetMass",
                "R10TruthLabel_R22v1_TruthJetPt"
            ]
        },
        "event": {
            "customs": [
                "mcEventWeight",
                "eventNumber",
                "averageInteractionsPerCrossing",
                "actualInteractionsPerCrossing",
                "nPrimaryVertices"
            ]
        },
        "default_mapping": {
            "file": "fragments/default-mapping.json"
        }
    },
    "flow": [{
        "type": "flow",
        "output_name": "flow",
        "accessor": "constituentLinks",
        "n_to_save": 60,
        "variables": {
            "customs": [
                "flow_pt",
                "flow_energy",
                "flow_deta",
                "flow_dphi",
                "flow_dr"
            ]
        },
        "edm_names": {
            "flow_pt": "pt",
            "flow_energy": "energy",
            "flow_deta": "deta",
            "flow_dphi": "dphi",
            "flow_dr": "dr"
        },
        "associations": {
            "track": {
                "variables": {
                    "file": "fragments/pflow-track-variables.json",
                    "ints": [
                        "ftagTruthOriginLabel",
                        "ftagTruthTypeLabel",
                        "ftagTruthVertexIndex",
                        "subjetIndex"
                    ],
                    "chars": [
                        "leptonID"
                    ]
                },
                "edm_names": {
                    "ip_prefix": "btagIp_"
                }
            }
        }
    }],
    "tracks": [
        {
            "n_to_save": 60,
            "selection": {
                "file": "fragments/r22default-track-cuts.json"
            },
            "sort_order": "d0_significance",
            "btagging_link": "",
            "input_name": "nonConstituentGhostTracks",
            "output_name": "tracks",
            "variables": {
                "file": "fragments/pflow-track-variables.json",
                "ints": [
                    "truthOriginLabel",
                    "truthTypeLabel",
                    "truthVertexIndex",
                    "subjetIndex"
                ],
                "chars": [
                    "leptonID"
                ]
            },
            "ip_prefix": "btagIp_"
        }
    ],
    "truths": [],
    "subjets": [
        {
            "input_name": "GhostAntiKtVR30Rmax4Rmin02PV0TrackJets",
            "output_name": "subjets",
            "btagging_link": "btaggingLink",
            "tracks_name": "GhostTrack",
            "min_jet_pt": 7000,
            "max_abs_eta": 2.5,
            "num_const": 0,
            "n_subjets_to_save": 3,
            "variables": {
                "file": "fragments/subjet-variables.json"
            }
        }
    ],
    "decorate": {
        "jet_aug": false,
        "btag_jes": false,
        "soft_muon": false,
        "track_sv_info": false,
        "lepton_decay_label": false
    },
    "btagging_link": ""
}
